^C:\USERS\MIHAI\DESKTOP\BINARY\SOURCE\USERINTERFACE\USERINTERFACE.RC
C:\USERS\MIHAI\DESKTOP\BINARY\SOURCE\USERINTERFACE\RESOURCE.H
C:\USERS\MIHAI\DESKTOP\BINARY\SOURCE\USERINTERFACE\VERSION.H
C:\PROGRAM FILES\MICROSOFT VISUAL STUDIO 12.0\VC\ATLMFC\INCLUDE\AFXRES.H
C:\PROGRAM FILES\MICROSOFT SDKS\WINDOWS\V7.1A\INCLUDE\WINRES.H
C:\PROGRAM FILES\MICROSOFT SDKS\WINDOWS\V7.1A\INCLUDE\WINRESRC.H
C:\PROGRAM FILES\MICROSOFT SDKS\WINDOWS\V7.1A\INCLUDE\WINUSER.RH
C:\PROGRAM FILES\MICROSOFT SDKS\WINDOWS\V7.1A\INCLUDE\COMMCTRL.RH
C:\PROGRAM FILES\MICROSOFT SDKS\WINDOWS\V7.1A\INCLUDE\DDE.RH
C:\PROGRAM FILES\MICROSOFT SDKS\WINDOWS\V7.1A\INCLUDE\WINNT.RH
C:\PROGRAM FILES\MICROSOFT SDKS\WINDOWS\V7.1A\INCLUDE\DLGS.H
C:\PROGRAM FILES\MICROSOFT SDKS\WINDOWS\V7.1A\INCLUDE\WINVER.H
C:\PROGRAM FILES\MICROSOFT SDKS\WINDOWS\V7.1A\INCLUDE\SPECSTRINGS.H
C:\PROGRAM FILES\MICROSOFT SDKS\WINDOWS\V7.1A\INCLUDE\SAL_SUPP.H
C:\PROGRAM FILES\MICROSOFT SDKS\WINDOWS\V7.1A\INCLUDE\SPECSTRINGS_SUPP.H
C:\PROGRAM FILES\MICROSOFT VISUAL STUDIO 12.0\VC\INCLUDE\SAL.H
C:\PROGRAM FILES\MICROSOFT VISUAL STUDIO 12.0\VC\INCLUDE\CONCURRENCYSAL.H
C:\PROGRAM FILES\MICROSOFT SDKS\WINDOWS\V7.1A\INCLUDE\DRIVERSPECS.H
C:\PROGRAM FILES\MICROSOFT SDKS\WINDOWS\V7.1A\INCLUDE\SDV_DRIVERSPECS.H
C:\PROGRAM FILES\MICROSOFT SDKS\WINDOWS\V7.1A\INCLUDE\VERRSRC.H
C:\USERS\MIHAI\DESKTOP\BINARY\SOURCE\USERINTERFACE\CURSORS\CURSOR.CUR
C:\USERS\MIHAI\DESKTOP\BINARY\SOURCE\USERINTERFACE\CURSORS\CURSOR_CHAIR.CUR
C:\USERS\MIHAI\DESKTOP\BINARY\SOURCE\USERINTERFACE\CURSORS\CURSOR_DOOR.CUR
C:\USERS\MIHAI\DESKTOP\BINARY\SOURCE\USERINTERFACE\CURSORS\CURSOR_NO.CUR
C:\USERS\MIHAI\DESKTOP\BINARY\SOURCE\USERINTERFACE\CURSORS\CURSOR_PICK.CUR
C:\USERS\MIHAI\DESKTOP\BINARY\SOURCE\USERINTERFACE\CURSORS\CURSOR_TALK.CUR
C:\USERS\MIHAI\DESKTOP\BINARY\SOURCE\USERINTERFACE\CURSORS\CURSOR_ATTACK.CUR
C:\USERS\MIHAI\DESKTOP\BINARY\SOURCE\USERINTERFACE\CURSORS\CURSOR_BUY.CUR
C:\USERS\MIHAI\DESKTOP\BINARY\SOURCE\USERINTERFACE\CURSORS\CURSOR_SELL.CUR
C:\USERS\MIHAI\DESKTOP\BINARY\SOURCE\USERINTERFACE\CURSORS\CURSOR_CAMERA_ROTATE.CUR
C:\USERS\MIHAI\DESKTOP\BINARY\SOURCE\USERINTERFACE\CURSORS\CURSOR_HSIZE.CUR
C:\USERS\MIHAI\DESKTOP\BINARY\SOURCE\USERINTERFACE\CURSORS\CURSOR_VSIZE.CUR
C:\USERS\MIHAI\DESKTOP\BINARY\SOURCE\USERINTERFACE\CURSORS\CURSOR_HVSIZE.CUR
C:\USERS\MIHAI\DESKTOP\BINARY\SOURCE\USERINTERFACE\METIN2.ICO
