^C:\USERS\MIHAI\DESKTOP\BINARY\SOURCE\PRTERRAINLIB\STDAFX.CPP
C:\USERS\MIHAI\DESKTOP\BINARY\VS_FILES\TERRAINLIB\DISTRIBUTE\PRTERRAINLIB.PCH
C:\USERS\MIHAI\DESKTOP\BINARY\VS_FILES\TERRAINLIB\DISTRIBUTE\VC120.PDB
C:\USERS\MIHAI\DESKTOP\BINARY\VS_FILES\TERRAINLIB\DISTRIBUTE\STDAFX.OBJ
^C:\USERS\MIHAI\DESKTOP\BINARY\SOURCE\PRTERRAINLIB\TERRAIN.CPP|C:\USERS\MIHAI\DESKTOP\BINARY\SOURCE\PRTERRAINLIB\TEXTURESET.CPP
C:\USERS\MIHAI\DESKTOP\BINARY\VS_FILES\TERRAINLIB\DISTRIBUTE\VC120.PDB
C:\USERS\MIHAI\DESKTOP\BINARY\VS_FILES\TERRAINLIB\DISTRIBUTE\TEXTURESET.OBJ
C:\USERS\MIHAI\DESKTOP\BINARY\VS_FILES\TERRAINLIB\DISTRIBUTE\TERRAIN.OBJ
^C:\USERS\MIHAI\DESKTOP\BINARY\SOURCE\PRTERRAINLIB\TERRAIN.CPP
C:\USERS\MIHAI\DESKTOP\BINARY\VS_FILES\TERRAINLIB\DISTRIBUTE\VC120.PDB
^C:\USERS\MIHAI\DESKTOP\BINARY\SOURCE\PRTERRAINLIB\TEXTURESET.CPP
C:\USERS\MIHAI\DESKTOP\BINARY\VS_FILES\TERRAINLIB\DISTRIBUTE\VC120.PDB
