^C:\USERS\MIHAI\DESKTOP\BINARY\SOURCE\SPEEDTREELIB\STDAFX.CPP
C:\USERS\MIHAI\DESKTOP\BINARY\VS_FILES\SPEEDTREELIB\DISTRIBUTE\SPEEDTREELIB.PCH
C:\USERS\MIHAI\DESKTOP\BINARY\VS_FILES\SPEEDTREELIB\DISTRIBUTE\VC120.PDB
C:\USERS\MIHAI\DESKTOP\BINARY\VS_FILES\SPEEDTREELIB\DISTRIBUTE\STDAFX.OBJ
^C:\USERS\MIHAI\DESKTOP\BINARY\SOURCE\SPEEDTREELIB\BOUNDARYSHAPEMANAGER.CPP|C:\USERS\MIHAI\DESKTOP\BINARY\SOURCE\SPEEDTREELIB\SPEEDGRASSRT.CPP|C:\USERS\MIHAI\DESKTOP\BINARY\SOURCE\SPEEDTREELIB\SPEEDGRASSWRAPPER.CPP|C:\USERS\MIHAI\DESKTOP\BINARY\SOURCE\SPEEDTREELIB\SPEEDTREEFOREST.CPP|C:\USERS\MIHAI\DESKTOP\BINARY\SOURCE\SPEEDTREELIB\SPEEDTREEFORESTDIRECTX8.CPP|C:\USERS\MIHAI\DESKTOP\BINARY\SOURCE\SPEEDTREELIB\SPEEDTREEWRAPPER.CPP
C:\USERS\MIHAI\DESKTOP\BINARY\VS_FILES\SPEEDTREELIB\DISTRIBUTE\VC120.PDB
C:\USERS\MIHAI\DESKTOP\BINARY\VS_FILES\SPEEDTREELIB\DISTRIBUTE\SPEEDTREEWRAPPER.OBJ
C:\USERS\MIHAI\DESKTOP\BINARY\VS_FILES\SPEEDTREELIB\DISTRIBUTE\SPEEDTREEFORESTDIRECTX8.OBJ
C:\USERS\MIHAI\DESKTOP\BINARY\VS_FILES\SPEEDTREELIB\DISTRIBUTE\SPEEDTREEFOREST.OBJ
C:\USERS\MIHAI\DESKTOP\BINARY\VS_FILES\SPEEDTREELIB\DISTRIBUTE\SPEEDGRASSWRAPPER.OBJ
C:\USERS\MIHAI\DESKTOP\BINARY\VS_FILES\SPEEDTREELIB\DISTRIBUTE\SPEEDGRASSRT.OBJ
C:\USERS\MIHAI\DESKTOP\BINARY\VS_FILES\SPEEDTREELIB\DISTRIBUTE\BOUNDARYSHAPEMANAGER.OBJ
^C:\USERS\MIHAI\DESKTOP\BINARY\SOURCE\SPEEDTREELIB\BOUNDARYSHAPEMANAGER.CPP
C:\USERS\MIHAI\DESKTOP\BINARY\VS_FILES\SPEEDTREELIB\DISTRIBUTE\VC120.PDB
^C:\USERS\MIHAI\DESKTOP\BINARY\SOURCE\SPEEDTREELIB\SPEEDGRASSRT.CPP
C:\USERS\MIHAI\DESKTOP\BINARY\VS_FILES\SPEEDTREELIB\DISTRIBUTE\VC120.PDB
^C:\USERS\MIHAI\DESKTOP\BINARY\SOURCE\SPEEDTREELIB\SPEEDGRASSWRAPPER.CPP
C:\USERS\MIHAI\DESKTOP\BINARY\VS_FILES\SPEEDTREELIB\DISTRIBUTE\VC120.PDB
^C:\USERS\MIHAI\DESKTOP\BINARY\SOURCE\SPEEDTREELIB\SPEEDTREEFOREST.CPP
C:\USERS\MIHAI\DESKTOP\BINARY\VS_FILES\SPEEDTREELIB\DISTRIBUTE\VC120.PDB
^C:\USERS\MIHAI\DESKTOP\BINARY\SOURCE\SPEEDTREELIB\SPEEDTREEFORESTDIRECTX8.CPP
C:\USERS\MIHAI\DESKTOP\BINARY\VS_FILES\SPEEDTREELIB\DISTRIBUTE\VC120.PDB
^C:\USERS\MIHAI\DESKTOP\BINARY\SOURCE\SPEEDTREELIB\SPEEDTREEWRAPPER.CPP
C:\USERS\MIHAI\DESKTOP\BINARY\VS_FILES\SPEEDTREELIB\DISTRIBUTE\VC120.PDB
