^C:\USERS\MIHAI\DESKTOP\BINARY\SOURCE\ETERLOCALE\STDAFX.CPP
C:\USERS\MIHAI\DESKTOP\BINARY\VS_FILES\ETERLOCALE\DISTRIBUTE\ETERLOCALE.PCH
C:\USERS\MIHAI\DESKTOP\BINARY\VS_FILES\ETERLOCALE\DISTRIBUTE\VC120.PDB
C:\USERS\MIHAI\DESKTOP\BINARY\VS_FILES\ETERLOCALE\DISTRIBUTE\STDAFX.OBJ
^C:\USERS\MIHAI\DESKTOP\BINARY\SOURCE\ETERLOCALE\ARABIC.CPP|C:\USERS\MIHAI\DESKTOP\BINARY\SOURCE\ETERLOCALE\JAPANESE.CPP|C:\USERS\MIHAI\DESKTOP\BINARY\SOURCE\ETERLOCALE\STRINGCODEC.CPP|C:\USERS\MIHAI\DESKTOP\BINARY\SOURCE\ETERLOCALE\STRINGCODEC_VIETNAMESE.CPP
C:\USERS\MIHAI\DESKTOP\BINARY\VS_FILES\ETERLOCALE\DISTRIBUTE\VC120.PDB
C:\USERS\MIHAI\DESKTOP\BINARY\VS_FILES\ETERLOCALE\DISTRIBUTE\STRINGCODEC_VIETNAMESE.OBJ
C:\USERS\MIHAI\DESKTOP\BINARY\VS_FILES\ETERLOCALE\DISTRIBUTE\STRINGCODEC.OBJ
C:\USERS\MIHAI\DESKTOP\BINARY\VS_FILES\ETERLOCALE\DISTRIBUTE\JAPANESE.OBJ
C:\USERS\MIHAI\DESKTOP\BINARY\VS_FILES\ETERLOCALE\DISTRIBUTE\ARABIC.OBJ
^C:\USERS\MIHAI\DESKTOP\BINARY\SOURCE\ETERLOCALE\ARABIC.CPP
C:\USERS\MIHAI\DESKTOP\BINARY\VS_FILES\ETERLOCALE\DISTRIBUTE\VC120.PDB
^C:\USERS\MIHAI\DESKTOP\BINARY\SOURCE\ETERLOCALE\JAPANESE.CPP
C:\USERS\MIHAI\DESKTOP\BINARY\VS_FILES\ETERLOCALE\DISTRIBUTE\VC120.PDB
^C:\USERS\MIHAI\DESKTOP\BINARY\SOURCE\ETERLOCALE\STRINGCODEC.CPP
C:\USERS\MIHAI\DESKTOP\BINARY\VS_FILES\ETERLOCALE\DISTRIBUTE\VC120.PDB
^C:\USERS\MIHAI\DESKTOP\BINARY\SOURCE\ETERLOCALE\STRINGCODEC_VIETNAMESE.CPP
C:\USERS\MIHAI\DESKTOP\BINARY\VS_FILES\ETERLOCALE\DISTRIBUTE\VC120.PDB
