^C:\USERS\MIHAI\DESKTOP\BINARY\VS_FILES\GAMELIB\DISTRIBUTE\ACTORINSTANCE.OBJ|C:\USERS\MIHAI\DESKTOP\BINARY\VS_FILES\GAMELIB\DISTRIBUTE\ACTORINSTANCEATTACH.OBJ|C:\USERS\MIHAI\DESKTOP\BINARY\VS_FILES\GAMELIB\DISTRIBUTE\ACTORINSTANCEBATTLE.OBJ|C:\USERS\MIHAI\DESKTOP\BINARY\VS_FILES\GAMELIB\DISTRIBUTE\ACTORINSTANCEBLEND.OBJ|C:\USERS\MIHAI\DESKTOP\BINARY\VS_FILES\GAMELIB\DISTRIBUTE\ACTORINSTANCECOLLISIONDETECTION.OBJ|C:\USERS\MIHAI\DESKTOP\BINARY\VS_FILES\GAMELIB\DISTRIBUTE\ACTORINSTANCEDATA.OBJ|C:\USERS\MIHAI\DESKTOP\BINARY\VS_FILES\GAMELIB\DISTRIBUTE\ACTORINSTANCEEVENT.OBJ|C:\USERS\MIHAI\DESKTOP\BINARY\VS_FILES\GAMELIB\DISTRIBUTE\ACTORINSTANCEFLY.OBJ|C:\USERS\MIHAI\DESKTOP\BINARY\VS_FILES\GAMELIB\DISTRIBUTE\ACTORINSTANCEMOTION.OBJ|C:\USERS\MIHAI\DESKTOP\BINARY\VS_FILES\GAMELIB\DISTRIBUTE\ACTORINSTANCEMOTIONEVENT.OBJ|C:\USERS\MIHAI\DESKTOP\BINARY\VS_FILES\GAMELIB\DISTRIBUTE\ACTORINSTANCEPOSITION.OBJ|C:\USERS\MIHAI\DESKTOP\BINARY\VS_FILES\GAMELIB\DISTRIBUTE\ACTORINSTANCERENDER.OBJ|C:\USERS\MIHAI\DESKTOP\BINARY\VS_FILES\GAMELIB\DISTRIBUTE\ACTORINSTANCEROTATION.OBJ|C:\USERS\MIHAI\DESKTOP\BINARY\VS_FILES\GAMELIB\DISTRIBUTE\ACTORINSTANCESYNC.OBJ|C:\USERS\MIHAI\DESKTOP\BINARY\VS_FILES\GAMELIB\DISTRIBUTE\ACTORINSTANCEWEAPONTRACE.OBJ|C:\USERS\MIHAI\DESKTOP\BINARY\VS_FILES\GAMELIB\DISTRIBUTE\AREA.OBJ|C:\USERS\MIHAI\DESKTOP\BINARY\VS_FILES\GAMELIB\DISTRIBUTE\AREALOADERTHREAD.OBJ|C:\USERS\MIHAI\DESKTOP\BINARY\VS_FILES\GAMELIB\DISTRIBUTE\AREATERRAIN.OBJ|C:\USERS\MIHAI\DESKTOP\BINARY\VS_FILES\GAMELIB\DISTRIBUTE\DUNGEONBLOCK.OBJ|C:\USERS\MIHAI\DESKTOP\BINARY\VS_FILES\GAMELIB\DISTRIBUTE\FLYINGDATA.OBJ|C:\USERS\MIHAI\DESKTOP\BINARY\VS_FILES\GAMELIB\DISTRIBUTE\FLYINGINSTANCE.OBJ|C:\USERS\MIHAI\DESKTOP\BINARY\VS_FILES\GAMELIB\DISTRIBUTE\FLYINGOBJECTMANAGER.OBJ|C:\USERS\MIHAI\DESKTOP\BINARY\VS_FILES\GAMELIB\DISTRIBUTE\FLYTARGET.OBJ|C:\USERS\MIHAI\DESKTOP\BINARY\VS_FILES\GAMELIB\DISTRIBUTE\FLYTRACE.OBJ|C:\USERS\MIHAI\DESKTOP\BINARY\VS_FILES\GAMELIB\DISTRIBUTE\GAMEEVENTMANAGER.OBJ|C:\USERS\MIHAI\DESKTOP\BINARY\VS_FILES\GAMELIB\DISTRIBUTE\GAMETYPE.OBJ|C:\USERS\MIHAI\DESKTOP\BINARY\VS_FILES\GAMELIB\DISTRIBUTE\GAMEUTIL.OBJ|C:\USERS\MIHAI\DESKTOP\BINARY\VS_FILES\GAMELIB\DISTRIBUTE\ITEMDATA.OBJ|C:\USERS\MIHAI\DESKTOP\BINARY\VS_FILES\GAMELIB\DISTRIBUTE\ITEMMANAGER.OBJ|C:\USERS\MIHAI\DESKTOP\BINARY\VS_FILES\GAMELIB\DISTRIBUTE\MAPBASE.OBJ|C:\USERS\MIHAI\DESKTOP\BINARY\VS_FILES\GAMELIB\DISTRIBUTE\MAPMANAGER.OBJ|C:\USERS\MIHAI\DESKTOP\BINARY\VS_FILES\GAMELIB\DISTRIBUTE\MAPOUTDOOR.OBJ|C:\USERS\MIHAI\DESKTOP\BINARY\VS_FILES\GAMELIB\DISTRIBUTE\MAPOUTDOORCHARACTERSHADOW.OBJ|C:\USERS\MIHAI\DESKTOP\BINARY\VS_FILES\GAMELIB\DISTRIBUTE\MAPOUTDOORINDEXBUFFER.OBJ|C:\USERS\MIHAI\DESKTOP\BINARY\VS_FILES\GAMELIB\DISTRIBUTE\MAPOUTDOORLOAD.OBJ|C:\USERS\MIHAI\DESKTOP\BINARY\VS_FILES\GAMELIB\DISTRIBUTE\MAPOUTDOORQUADTREE.OBJ|C:\USERS\MIHAI\DESKTOP\BINARY\VS_FILES\GAMELIB\DISTRIBUTE\MAPOUTDOORRENDER.OBJ|C:\USERS\MIHAI\DESKTOP\BINARY\VS_FILES\GAMELIB\DISTRIBUTE\MAPOUTDOORRENDERHTP.OBJ|C:\USERS\MIHAI\DESKTOP\BINARY\VS_FILES\GAMELIB\DISTRIBUTE\MAPOUTDOORRENDERSTP.OBJ|C:\USERS\MIHAI\DESKTOP\BINARY\VS_FILES\GAMELIB\DISTRIBUTE\MAPOUTDOORUPDATE.OBJ|C:\USERS\MIHAI\DESKTOP\BINARY\VS_FILES\GAMELIB\DISTRIBUTE\MAPOUTDOORWATER.OBJ|C:\USERS\MIHAI\DESKTOP\BINARY\VS_FILES\GAMELIB\DISTRIBUTE\MAPTYPE.OBJ|C:\USERS\MIHAI\DESKTOP\BINARY\VS_FILES\GAMELIB\DISTRIBUTE\MAPUTIL.OBJ|C:\USERS\MIHAI\DESKTOP\BINARY\VS_FILES\GAMELIB\DISTRIBUTE\MONSTERAREAINFO.OBJ|C:\USERS\MIHAI\DESKTOP\BINARY\VS_FILES\GAMELIB\DISTRIBUTE\PHYSICSOBJECT.OBJ|C:\USERS\MIHAI\DESKTOP\BINARY\VS_FILES\GAMELIB\DISTRIBUTE\PROPERTY.OBJ|C:\USERS\MIHAI\DESKTOP\BINARY\VS_FILES\GAMELIB\DISTRIBUTE\PROPERTYLOADER.OBJ|C:\USERS\MIHAI\DESKTOP\BINARY\VS_FILES\GAMELIB\DISTRIBUTE\PROPERTYMANAGER.OBJ|C:\USERS\MIHAI\DESKTOP\BINARY\VS_FILES\GAMELIB\DISTRIBUTE\RACEDATA.OBJ|C:\USERS\MIHAI\DESKTOP\BINARY\VS_FILES\GAMELIB\DISTRIBUTE\RACEDATAFILE.OBJ|C:\USERS\MIHAI\DESKTOP\BINARY\VS_FILES\GAMELIB\DISTRIBUTE\RACEMANAGER.OBJ|C:\USERS\MIHAI\DESKTOP\BINARY\VS_FILES\GAMELIB\DISTRIBUTE\RACEMOTIONDATA.OBJ|C:\USERS\MIHAI\DESKTOP\BINARY\VS_FILES\GAMELIB\DISTRIBUTE\SNOWENVIRONMENT.OBJ|C:\USERS\MIHAI\DESKTOP\BINARY\VS_FILES\GAMELIB\DISTRIBUTE\SNOWPARTICLE.OBJ|C:\USERS\MIHAI\DESKTOP\BINARY\VS_FILES\GAMELIB\DISTRIBUTE\STDAFX.OBJ|C:\USERS\MIHAI\DESKTOP\BINARY\VS_FILES\GAMELIB\DISTRIBUTE\TERRAINDECAL.OBJ|C:\USERS\MIHAI\DESKTOP\BINARY\VS_FILES\GAMELIB\DISTRIBUTE\TERRAINPATCH.OBJ|C:\USERS\MIHAI\DESKTOP\BINARY\VS_FILES\GAMELIB\DISTRIBUTE\TERRAINQUADTREE.OBJ|C:\USERS\MIHAI\DESKTOP\BINARY\VS_FILES\GAMELIB\DISTRIBUTE\WEAPONTRACE.OBJ
C:\WINDOWS\SYSTEM32\TZRES.DLL
C:\USERS\MIHAI\DESKTOP\BINARY\VS_FILES\GAMELIB\DISTRIBUTE\ACTORINSTANCE.OBJ
C:\USERS\MIHAI\DESKTOP\BINARY\VS_FILES\GAMELIB\DISTRIBUTE\ACTORINSTANCEATTACH.OBJ
C:\USERS\MIHAI\DESKTOP\BINARY\VS_FILES\GAMELIB\DISTRIBUTE\ACTORINSTANCEBATTLE.OBJ
C:\USERS\MIHAI\DESKTOP\BINARY\VS_FILES\GAMELIB\DISTRIBUTE\ACTORINSTANCEBLEND.OBJ
C:\USERS\MIHAI\DESKTOP\BINARY\VS_FILES\GAMELIB\DISTRIBUTE\ACTORINSTANCECOLLISIONDETECTION.OBJ
C:\USERS\MIHAI\DESKTOP\BINARY\VS_FILES\GAMELIB\DISTRIBUTE\ACTORINSTANCEDATA.OBJ
C:\USERS\MIHAI\DESKTOP\BINARY\VS_FILES\GAMELIB\DISTRIBUTE\ACTORINSTANCEEVENT.OBJ
C:\USERS\MIHAI\DESKTOP\BINARY\VS_FILES\GAMELIB\DISTRIBUTE\ACTORINSTANCEFLY.OBJ
C:\USERS\MIHAI\DESKTOP\BINARY\VS_FILES\GAMELIB\DISTRIBUTE\ACTORINSTANCEMOTION.OBJ
C:\USERS\MIHAI\DESKTOP\BINARY\VS_FILES\GAMELIB\DISTRIBUTE\ACTORINSTANCEMOTIONEVENT.OBJ
C:\USERS\MIHAI\DESKTOP\BINARY\VS_FILES\GAMELIB\DISTRIBUTE\ACTORINSTANCEPOSITION.OBJ
C:\USERS\MIHAI\DESKTOP\BINARY\VS_FILES\GAMELIB\DISTRIBUTE\ACTORINSTANCERENDER.OBJ
C:\USERS\MIHAI\DESKTOP\BINARY\VS_FILES\GAMELIB\DISTRIBUTE\ACTORINSTANCEROTATION.OBJ
C:\USERS\MIHAI\DESKTOP\BINARY\VS_FILES\GAMELIB\DISTRIBUTE\ACTORINSTANCESYNC.OBJ
C:\USERS\MIHAI\DESKTOP\BINARY\VS_FILES\GAMELIB\DISTRIBUTE\ACTORINSTANCEWEAPONTRACE.OBJ
C:\USERS\MIHAI\DESKTOP\BINARY\VS_FILES\GAMELIB\DISTRIBUTE\AREA.OBJ
C:\USERS\MIHAI\DESKTOP\BINARY\VS_FILES\GAMELIB\DISTRIBUTE\AREALOADERTHREAD.OBJ
C:\USERS\MIHAI\DESKTOP\BINARY\VS_FILES\GAMELIB\DISTRIBUTE\AREATERRAIN.OBJ
C:\USERS\MIHAI\DESKTOP\BINARY\VS_FILES\GAMELIB\DISTRIBUTE\DUNGEONBLOCK.OBJ
C:\USERS\MIHAI\DESKTOP\BINARY\VS_FILES\GAMELIB\DISTRIBUTE\FLYINGDATA.OBJ
C:\USERS\MIHAI\DESKTOP\BINARY\VS_FILES\GAMELIB\DISTRIBUTE\FLYINGINSTANCE.OBJ
C:\USERS\MIHAI\DESKTOP\BINARY\VS_FILES\GAMELIB\DISTRIBUTE\FLYINGOBJECTMANAGER.OBJ
C:\USERS\MIHAI\DESKTOP\BINARY\VS_FILES\GAMELIB\DISTRIBUTE\FLYTARGET.OBJ
C:\USERS\MIHAI\DESKTOP\BINARY\VS_FILES\GAMELIB\DISTRIBUTE\FLYTRACE.OBJ
C:\USERS\MIHAI\DESKTOP\BINARY\VS_FILES\GAMELIB\DISTRIBUTE\GAMEEVENTMANAGER.OBJ
C:\USERS\MIHAI\DESKTOP\BINARY\VS_FILES\GAMELIB\DISTRIBUTE\GAMETYPE.OBJ
C:\USERS\MIHAI\DESKTOP\BINARY\VS_FILES\GAMELIB\DISTRIBUTE\GAMEUTIL.OBJ
C:\USERS\MIHAI\DESKTOP\BINARY\VS_FILES\GAMELIB\DISTRIBUTE\ITEMDATA.OBJ
C:\USERS\MIHAI\DESKTOP\BINARY\VS_FILES\GAMELIB\DISTRIBUTE\ITEMMANAGER.OBJ
C:\USERS\MIHAI\DESKTOP\BINARY\VS_FILES\GAMELIB\DISTRIBUTE\MAPBASE.OBJ
C:\USERS\MIHAI\DESKTOP\BINARY\VS_FILES\GAMELIB\DISTRIBUTE\MAPMANAGER.OBJ
C:\USERS\MIHAI\DESKTOP\BINARY\VS_FILES\GAMELIB\DISTRIBUTE\MAPOUTDOOR.OBJ
C:\USERS\MIHAI\DESKTOP\BINARY\VS_FILES\GAMELIB\DISTRIBUTE\MAPOUTDOORCHARACTERSHADOW.OBJ
C:\USERS\MIHAI\DESKTOP\BINARY\VS_FILES\GAMELIB\DISTRIBUTE\MAPOUTDOORINDEXBUFFER.OBJ
C:\USERS\MIHAI\DESKTOP\BINARY\VS_FILES\GAMELIB\DISTRIBUTE\MAPOUTDOORLOAD.OBJ
C:\USERS\MIHAI\DESKTOP\BINARY\VS_FILES\GAMELIB\DISTRIBUTE\MAPOUTDOORQUADTREE.OBJ
C:\USERS\MIHAI\DESKTOP\BINARY\VS_FILES\GAMELIB\DISTRIBUTE\MAPOUTDOORRENDER.OBJ
C:\USERS\MIHAI\DESKTOP\BINARY\VS_FILES\GAMELIB\DISTRIBUTE\MAPOUTDOORRENDERHTP.OBJ
C:\USERS\MIHAI\DESKTOP\BINARY\VS_FILES\GAMELIB\DISTRIBUTE\MAPOUTDOORRENDERSTP.OBJ
C:\USERS\MIHAI\DESKTOP\BINARY\VS_FILES\GAMELIB\DISTRIBUTE\MAPOUTDOORUPDATE.OBJ
C:\USERS\MIHAI\DESKTOP\BINARY\VS_FILES\GAMELIB\DISTRIBUTE\MAPOUTDOORWATER.OBJ
C:\USERS\MIHAI\DESKTOP\BINARY\VS_FILES\GAMELIB\DISTRIBUTE\MAPTYPE.OBJ
C:\USERS\MIHAI\DESKTOP\BINARY\VS_FILES\GAMELIB\DISTRIBUTE\MAPUTIL.OBJ
C:\USERS\MIHAI\DESKTOP\BINARY\VS_FILES\GAMELIB\DISTRIBUTE\MONSTERAREAINFO.OBJ
C:\USERS\MIHAI\DESKTOP\BINARY\VS_FILES\GAMELIB\DISTRIBUTE\PHYSICSOBJECT.OBJ
C:\USERS\MIHAI\DESKTOP\BINARY\VS_FILES\GAMELIB\DISTRIBUTE\PROPERTY.OBJ
C:\USERS\MIHAI\DESKTOP\BINARY\VS_FILES\GAMELIB\DISTRIBUTE\PROPERTYLOADER.OBJ
C:\USERS\MIHAI\DESKTOP\BINARY\VS_FILES\GAMELIB\DISTRIBUTE\PROPERTYMANAGER.OBJ
C:\USERS\MIHAI\DESKTOP\BINARY\VS_FILES\GAMELIB\DISTRIBUTE\RACEDATA.OBJ
C:\USERS\MIHAI\DESKTOP\BINARY\VS_FILES\GAMELIB\DISTRIBUTE\RACEDATAFILE.OBJ
C:\USERS\MIHAI\DESKTOP\BINARY\VS_FILES\GAMELIB\DISTRIBUTE\RACEMANAGER.OBJ
C:\USERS\MIHAI\DESKTOP\BINARY\VS_FILES\GAMELIB\DISTRIBUTE\RACEMOTIONDATA.OBJ
C:\USERS\MIHAI\DESKTOP\BINARY\VS_FILES\GAMELIB\DISTRIBUTE\SNOWENVIRONMENT.OBJ
C:\USERS\MIHAI\DESKTOP\BINARY\VS_FILES\GAMELIB\DISTRIBUTE\SNOWPARTICLE.OBJ
C:\USERS\MIHAI\DESKTOP\BINARY\VS_FILES\GAMELIB\DISTRIBUTE\STDAFX.OBJ
C:\USERS\MIHAI\DESKTOP\BINARY\VS_FILES\GAMELIB\DISTRIBUTE\TERRAINDECAL.OBJ
C:\USERS\MIHAI\DESKTOP\BINARY\VS_FILES\GAMELIB\DISTRIBUTE\TERRAINPATCH.OBJ
C:\USERS\MIHAI\DESKTOP\BINARY\VS_FILES\GAMELIB\DISTRIBUTE\TERRAINQUADTREE.OBJ
C:\USERS\MIHAI\DESKTOP\BINARY\VS_FILES\GAMELIB\DISTRIBUTE\WEAPONTRACE.OBJ
C:\WINDOWS\GLOBALIZATION\SORTING\SORTDEFAULT.NLS
