^C:\USERS\FEFE\DESKTOP\CLEAN ATHERO\CLEAN ATHERO\BINARY\BINARY\SOURCE\ETERBASE\STDAFX.CPP
E:\VSCOMM\VC\BIN\1033\CLUI.DLL
C:\WINDOWS\GLOBALIZATION\SORTING\SORTDEFAULT.NLS
C:\WINDOWS\SYSTEM32\TZRES.DLL
C:\USERS\FEFE\DESKTOP\CLEAN ATHERO\CLEAN ATHERO\BINARY\BINARY\SOURCE\ETERBASE\STDAFX.H
C:\PROGRAM FILES (X86)\MICROSOFT SDKS\WINDOWS\V7.1A\INCLUDE\WINDOWS.H
C:\PROGRAM FILES (X86)\MICROSOFT SDKS\WINDOWS\V7.1A\INCLUDE\SDKDDKVER.H
E:\VSCOMM\VC\INCLUDE\EXCPT.H
E:\VSCOMM\VC\INCLUDE\CRTDEFS.H
E:\VSCOMM\VC\INCLUDE\SAL.H
E:\VSCOMM\VC\INCLUDE\CONCURRENCYSAL.H
E:\VSCOMM\VC\INCLUDE\VADEFS.H
E:\VSCOMM\VC\INCLUDE\STDARG.H
C:\PROGRAM FILES (X86)\MICROSOFT SDKS\WINDOWS\V7.1A\INCLUDE\WINDEF.H
C:\PROGRAM FILES (X86)\MICROSOFT SDKS\WINDOWS\V7.1A\INCLUDE\WINNT.H
E:\VSCOMM\VC\INCLUDE\CTYPE.H
C:\PROGRAM FILES (X86)\MICROSOFT SDKS\WINDOWS\V7.1A\INCLUDE\SPECSTRINGS.H
C:\PROGRAM FILES (X86)\MICROSOFT SDKS\WINDOWS\V7.1A\INCLUDE\SAL_SUPP.H
C:\PROGRAM FILES (X86)\MICROSOFT SDKS\WINDOWS\V7.1A\INCLUDE\SPECSTRINGS_SUPP.H
C:\PROGRAM FILES (X86)\MICROSOFT SDKS\WINDOWS\V7.1A\INCLUDE\SPECSTRINGS_STRICT.H
C:\PROGRAM FILES (X86)\MICROSOFT SDKS\WINDOWS\V7.1A\INCLUDE\SPECSTRINGS_UNDEF.H
C:\PROGRAM FILES (X86)\MICROSOFT SDKS\WINDOWS\V7.1A\INCLUDE\DRIVERSPECS.H
C:\PROGRAM FILES (X86)\MICROSOFT SDKS\WINDOWS\V7.1A\INCLUDE\SDV_DRIVERSPECS.H
C:\PROGRAM FILES (X86)\MICROSOFT SDKS\WINDOWS\V7.1A\INCLUDE\KERNELSPECS.H
C:\PROGRAM FILES (X86)\MICROSOFT SDKS\WINDOWS\V7.1A\INCLUDE\BASETSD.H
C:\PROGRAM FILES (X86)\MICROSOFT SDKS\WINDOWS\V7.1A\INCLUDE\GUIDDEF.H
E:\VSCOMM\VC\INCLUDE\STRING.H
C:\PROGRAM FILES (X86)\MICROSOFT SDKS\WINDOWS\V7.1A\INCLUDE\PSHPACK4.H
C:\PROGRAM FILES (X86)\MICROSOFT SDKS\WINDOWS\V7.1A\INCLUDE\POPPACK.H
C:\PROGRAM FILES (X86)\MICROSOFT SDKS\WINDOWS\V7.1A\INCLUDE\PSHPACK2.H
C:\PROGRAM FILES (X86)\MICROSOFT SDKS\WINDOWS\V7.1A\INCLUDE\PSHPACK8.H
C:\PROGRAM FILES (X86)\MICROSOFT SDKS\WINDOWS\V7.1A\INCLUDE\KTMTYPES.H
C:\PROGRAM FILES (X86)\MICROSOFT SDKS\WINDOWS\V7.1A\INCLUDE\WINBASE.H
C:\PROGRAM FILES (X86)\MICROSOFT SDKS\WINDOWS\V7.1A\INCLUDE\WINERROR.H
C:\PROGRAM FILES (X86)\MICROSOFT SDKS\WINDOWS\V7.1A\INCLUDE\WINGDI.H
C:\PROGRAM FILES (X86)\MICROSOFT SDKS\WINDOWS\V7.1A\INCLUDE\PSHPACK1.H
C:\PROGRAM FILES (X86)\MICROSOFT SDKS\WINDOWS\V7.1A\INCLUDE\WINUSER.H
C:\PROGRAM FILES (X86)\MICROSOFT SDKS\WINDOWS\V7.1A\INCLUDE\TVOUT.H
C:\PROGRAM FILES (X86)\MICROSOFT SDKS\WINDOWS\V7.1A\INCLUDE\WINNLS.H
C:\PROGRAM FILES (X86)\MICROSOFT SDKS\WINDOWS\V7.1A\INCLUDE\WINCON.H
C:\PROGRAM FILES (X86)\MICROSOFT SDKS\WINDOWS\V7.1A\INCLUDE\WINVER.H
C:\PROGRAM FILES (X86)\MICROSOFT SDKS\WINDOWS\V7.1A\INCLUDE\VERRSRC.H
C:\PROGRAM FILES (X86)\MICROSOFT SDKS\WINDOWS\V7.1A\INCLUDE\WINREG.H
C:\PROGRAM FILES (X86)\MICROSOFT SDKS\WINDOWS\V7.1A\INCLUDE\REASON.H
C:\PROGRAM FILES (X86)\MICROSOFT SDKS\WINDOWS\V7.1A\INCLUDE\WINNETWK.H
C:\PROGRAM FILES (X86)\MICROSOFT SDKS\WINDOWS\V7.1A\INCLUDE\WNNC.H
C:\PROGRAM FILES (X86)\MICROSOFT SDKS\WINDOWS\V7.1A\INCLUDE\STRALIGN.H
C:\PROGRAM FILES (X86)\MICROSOFT SDKS\WINDOWS\V7.1A\INCLUDE\WINSVC.H
C:\PROGRAM FILES (X86)\MICROSOFT SDKS\WINDOWS\V7.1A\INCLUDE\MCX.H
C:\PROGRAM FILES (X86)\MICROSOFT SDKS\WINDOWS\V7.1A\INCLUDE\IMM.H
C:\PROGRAM FILES (X86)\MICROSOFT SDKS\WINDOWS\V7.1A\INCLUDE\IME_CMODES.H
E:\VSCOMM\VC\INCLUDE\ASSERT.H
E:\VSCOMM\VC\INCLUDE\STDIO.H
E:\VSCOMM\VC\INCLUDE\SWPRINTF.INL
C:\PROGRAM FILES (X86)\MICROSOFT SDKS\WINDOWS\V7.1A\INCLUDE\MMSYSTEM.H
C:\PROGRAM FILES (X86)\MICROSOFT SDKS\WINDOWS\V7.1A\INCLUDE\IMAGEHLP.H
C:\PROGRAM FILES (X86)\MICROSOFT SDKS\WINDOWS\V7.1A\INCLUDE\WINTRUST.H
C:\PROGRAM FILES (X86)\MICROSOFT SDKS\WINDOWS\V7.1A\INCLUDE\WINCRYPT.H
C:\PROGRAM FILES (X86)\MICROSOFT SDKS\WINDOWS\V7.1A\INCLUDE\BCRYPT.H
C:\PROGRAM FILES (X86)\MICROSOFT SDKS\WINDOWS\V7.1A\INCLUDE\NCRYPT.H
E:\VSCOMM\VC\INCLUDE\TIME.H
E:\VSCOMM\VC\INCLUDE\WTIME.INL
E:\VSCOMM\VC\INCLUDE\TIME.INL
E:\VSCOMM\VC\INCLUDE\ALGORITHM
E:\VSCOMM\VC\INCLUDE\XMEMORY
E:\VSCOMM\VC\INCLUDE\XMEMORY0
E:\VSCOMM\VC\INCLUDE\CSTDLIB
E:\VSCOMM\VC\INCLUDE\YVALS.H
E:\VSCOMM\VC\INCLUDE\XKEYCHECK.H
E:\VSCOMM\VC\INCLUDE\USE_ANSI.H
E:\VSCOMM\VC\INCLUDE\STDLIB.H
E:\VSCOMM\VC\INCLUDE\LIMITS.H
E:\VSCOMM\VC\INCLUDE\LIMITS
E:\VSCOMM\VC\INCLUDE\YMATH.H
E:\VSCOMM\VC\INCLUDE\CFLOAT
E:\VSCOMM\VC\INCLUDE\FLOAT.H
E:\VSCOMM\VC\INCLUDE\CRTWRN.H
E:\VSCOMM\VC\INCLUDE\CLIMITS
E:\VSCOMM\VC\INCLUDE\CMATH
E:\VSCOMM\VC\INCLUDE\MATH.H
E:\VSCOMM\VC\INCLUDE\XTGMATH.H
E:\VSCOMM\VC\INCLUDE\XTR1COMMON
E:\VSCOMM\VC\INCLUDE\CWCHAR
E:\VSCOMM\VC\INCLUDE\WCHAR.H
E:\VSCOMM\VC\INCLUDE\XSTDDEF
E:\VSCOMM\VC\INCLUDE\CSTDDEF
E:\VSCOMM\VC\INCLUDE\STDDEF.H
E:\VSCOMM\VC\INCLUDE\INITIALIZER_LIST
E:\VSCOMM\VC\INCLUDE\NEW
E:\VSCOMM\VC\INCLUDE\EXCEPTION
E:\VSCOMM\VC\INCLUDE\EH.H
E:\VSCOMM\VC\INCLUDE\MALLOC.H
E:\VSCOMM\VC\INCLUDE\XUTILITY
E:\VSCOMM\VC\INCLUDE\UTILITY
E:\VSCOMM\VC\INCLUDE\IOSFWD
E:\VSCOMM\VC\INCLUDE\CSTDIO
E:\VSCOMM\VC\INCLUDE\CSTRING
E:\VSCOMM\VC\INCLUDE\CRTDBG.H
E:\VSCOMM\VC\INCLUDE\TYPE_TRAITS
E:\VSCOMM\VC\INCLUDE\XREFWRAP
E:\VSCOMM\VC\INCLUDE\XATOMIC0.H
E:\VSCOMM\VC\INCLUDE\INTRIN.H
E:\VSCOMM\VC\INCLUDE\SETJMP.H
E:\VSCOMM\VC\INCLUDE\IMMINTRIN.H
E:\VSCOMM\VC\INCLUDE\WMMINTRIN.H
E:\VSCOMM\VC\INCLUDE\NMMINTRIN.H
E:\VSCOMM\VC\INCLUDE\SMMINTRIN.H
E:\VSCOMM\VC\INCLUDE\TMMINTRIN.H
E:\VSCOMM\VC\INCLUDE\PMMINTRIN.H
E:\VSCOMM\VC\INCLUDE\EMMINTRIN.H
E:\VSCOMM\VC\INCLUDE\XMMINTRIN.H
E:\VSCOMM\VC\INCLUDE\MMINTRIN.H
E:\VSCOMM\VC\INCLUDE\AMMINTRIN.H
E:\VSCOMM\VC\INCLUDE\MM3DNOW.H
E:\VSCOMM\VC\INCLUDE\STRING
E:\VSCOMM\VC\INCLUDE\ITERATOR
E:\VSCOMM\VC\INCLUDE\ISTREAM
E:\VSCOMM\VC\INCLUDE\OSTREAM
E:\VSCOMM\VC\INCLUDE\IOS
E:\VSCOMM\VC\INCLUDE\XLOCNUM
E:\VSCOMM\VC\INCLUDE\STREAMBUF
E:\VSCOMM\VC\INCLUDE\XIOSBASE
E:\VSCOMM\VC\INCLUDE\XLOCALE
E:\VSCOMM\VC\INCLUDE\STDEXCEPT
E:\VSCOMM\VC\INCLUDE\XSTRING
E:\VSCOMM\VC\INCLUDE\TYPEINFO
E:\VSCOMM\VC\INCLUDE\XLOCINFO
E:\VSCOMM\VC\INCLUDE\XLOCINFO.H
E:\VSCOMM\VC\INCLUDE\LOCALE.H
E:\VSCOMM\VC\INCLUDE\XDEBUG
E:\VSCOMM\VC\INCLUDE\XFACET
E:\VSCOMM\VC\INCLUDE\SYSTEM_ERROR
E:\VSCOMM\VC\INCLUDE\CERRNO
E:\VSCOMM\VC\INCLUDE\ERRNO.H
E:\VSCOMM\VC\INCLUDE\SHARE.H
E:\VSCOMM\VC\INCLUDE\VECTOR
E:\VSCOMM\VC\INCLUDE\DEQUE
E:\VSCOMM\VC\INCLUDE\LIST
E:\VSCOMM\VC\INCLUDE\MAP
E:\VSCOMM\VC\INCLUDE\XTREE
E:\VSCOMM\VC\INCLUDE\TUPLE
C:\USERS\FEFE\DESKTOP\CLEAN ATHERO\CLEAN ATHERO\BINARY\BINARY\SOURCE\ETERBASE\VK.H
C:\USERS\FEFE\DESKTOP\CLEAN ATHERO\CLEAN ATHERO\BINARY\BINARY\SOURCE\ETERBASE\FILENAME.H
C:\USERS\FEFE\DESKTOP\CLEAN ATHERO\CLEAN ATHERO\BINARY\BINARY\SOURCE\ETERBASE\SERVICEDEFS.H
^C:\USERS\FEFE\DESKTOP\CLEAN ATHERO\CLEAN ATHERO\BINARY\BINARY\SOURCE\ETERBASE\CIPHER.CPP
C:\USERS\FEFE\DESKTOP\CLEAN ATHERO\CLEAN ATHERO\BINARY\BINARY\VS_FILES\ETERBASE\RELEASE\ETERBASE.PCH
C:\USERS\FEFE\DESKTOP\CLEAN ATHERO\CLEAN ATHERO\BINARY\BINARY\SOURCE\ETERBASE\CIPHER.H
^C:\USERS\FEFE\DESKTOP\CLEAN ATHERO\CLEAN ATHERO\BINARY\BINARY\SOURCE\ETERBASE\CPOSTIT.CPP
C:\USERS\FEFE\DESKTOP\CLEAN ATHERO\CLEAN ATHERO\BINARY\BINARY\VS_FILES\ETERBASE\RELEASE\ETERBASE.PCH
C:\USERS\FEFE\DESKTOP\CLEAN ATHERO\CLEAN ATHERO\BINARY\BINARY\SOURCE\ETERBASE\CPOSTIT.H
C:\USERS\FEFE\DESKTOP\CLEAN ATHERO\CLEAN ATHERO\BINARY\BINARY\SOURCE\ETERBASE\UTILS.H
^C:\USERS\FEFE\DESKTOP\CLEAN ATHERO\CLEAN ATHERO\BINARY\BINARY\SOURCE\ETERBASE\CRC32.CPP
C:\USERS\FEFE\DESKTOP\CLEAN ATHERO\CLEAN ATHERO\BINARY\BINARY\VS_FILES\ETERBASE\RELEASE\ETERBASE.PCH
C:\USERS\FEFE\DESKTOP\CLEAN ATHERO\CLEAN ATHERO\BINARY\BINARY\SOURCE\ETERBASE\CRC32.H
^C:\USERS\FEFE\DESKTOP\CLEAN ATHERO\CLEAN ATHERO\BINARY\BINARY\SOURCE\ETERBASE\DEBUG.CPP
C:\USERS\FEFE\DESKTOP\CLEAN ATHERO\CLEAN ATHERO\BINARY\BINARY\VS_FILES\ETERBASE\RELEASE\ETERBASE.PCH
C:\USERS\FEFE\DESKTOP\CLEAN ATHERO\CLEAN ATHERO\BINARY\BINARY\SOURCE\ETERBASE\DEBUG.H
C:\USERS\FEFE\DESKTOP\CLEAN ATHERO\CLEAN ATHERO\BINARY\BINARY\SOURCE\ETERBASE\SINGLETON.H
E:\VSCOMM\VC\INCLUDE\ASSERT.H
E:\VSCOMM\VC\INCLUDE\CRTDEFS.H
C:\USERS\FEFE\DESKTOP\CLEAN ATHERO\CLEAN ATHERO\BINARY\BINARY\SOURCE\ETERBASE\TIMER.H
^C:\USERS\FEFE\DESKTOP\CLEAN ATHERO\CLEAN ATHERO\BINARY\BINARY\SOURCE\ETERBASE\ERROR.CPP
C:\USERS\FEFE\DESKTOP\CLEAN ATHERO\CLEAN ATHERO\BINARY\BINARY\VS_FILES\ETERBASE\RELEASE\ETERBASE.PCH
C:\PROGRAM FILES (X86)\MICROSOFT SDKS\WINDOWS\V7.1A\INCLUDE\WINSOCK.H
C:\PROGRAM FILES (X86)\MICROSOFT SDKS\WINDOWS\V7.1A\INCLUDE\INADDR.H
^C:\USERS\FEFE\DESKTOP\CLEAN ATHERO\CLEAN ATHERO\BINARY\BINARY\SOURCE\ETERBASE\FILEBASE.CPP
C:\USERS\FEFE\DESKTOP\CLEAN ATHERO\CLEAN ATHERO\BINARY\BINARY\VS_FILES\ETERBASE\RELEASE\ETERBASE.PCH
C:\USERS\FEFE\DESKTOP\CLEAN ATHERO\CLEAN ATHERO\BINARY\BINARY\SOURCE\ETERBASE\FILEBASE.H
^C:\USERS\FEFE\DESKTOP\CLEAN ATHERO\CLEAN ATHERO\BINARY\BINARY\SOURCE\ETERBASE\FILEDIR.CPP
C:\USERS\FEFE\DESKTOP\CLEAN ATHERO\CLEAN ATHERO\BINARY\BINARY\VS_FILES\ETERBASE\RELEASE\ETERBASE.PCH
C:\USERS\FEFE\DESKTOP\CLEAN ATHERO\CLEAN ATHERO\BINARY\BINARY\SOURCE\ETERBASE\FILEDIR.H
^C:\USERS\FEFE\DESKTOP\CLEAN ATHERO\CLEAN ATHERO\BINARY\BINARY\SOURCE\ETERBASE\FILELOADER.CPP
C:\USERS\FEFE\DESKTOP\CLEAN ATHERO\CLEAN ATHERO\BINARY\BINARY\VS_FILES\ETERBASE\RELEASE\ETERBASE.PCH
C:\USERS\FEFE\DESKTOP\CLEAN ATHERO\CLEAN ATHERO\BINARY\BINARY\SOURCE\ETERBASE\FILELOADER.H
C:\USERS\FEFE\DESKTOP\CLEAN ATHERO\CLEAN ATHERO\BINARY\BINARY\SOURCE\ETERBASE\STL.H
E:\VSCOMM\VC\INCLUDE\ASSERT.H
E:\VSCOMM\VC\INCLUDE\CRTDEFS.H
E:\VSCOMM\VC\INCLUDE\STACK
E:\VSCOMM\VC\INCLUDE\SET
E:\VSCOMM\VC\INCLUDE\QUEUE
E:\VSCOMM\VC\INCLUDE\FUNCTIONAL
E:\VSCOMM\VC\INCLUDE\XFUNCTIONAL
E:\VSCOMM\VC\INCLUDE\SSTREAM
^C:\USERS\FEFE\DESKTOP\CLEAN ATHERO\CLEAN ATHERO\BINARY\BINARY\SOURCE\ETERBASE\LZO.CPP
C:\USERS\FEFE\DESKTOP\CLEAN ATHERO\CLEAN ATHERO\BINARY\BINARY\VS_FILES\ETERBASE\RELEASE\ETERBASE.PCH
C:\USERS\FEFE\DESKTOP\CLEAN ATHERO\CLEAN ATHERO\BINARY\BINARY\EXTERN\INCLUDE\LZO-2.03\LZOLIBLINK.H
C:\USERS\FEFE\DESKTOP\CLEAN ATHERO\CLEAN ATHERO\BINARY\BINARY\SOURCE\ETERBASE\LZO.H
C:\USERS\FEFE\DESKTOP\CLEAN ATHERO\CLEAN ATHERO\BINARY\BINARY\EXTERN\INCLUDE\LZO-2.03\LZO1X.H
C:\USERS\FEFE\DESKTOP\CLEAN ATHERO\CLEAN ATHERO\BINARY\BINARY\EXTERN\INCLUDE\LZO-2.03\LZOCONF.H
C:\USERS\FEFE\DESKTOP\CLEAN ATHERO\CLEAN ATHERO\BINARY\BINARY\EXTERN\INCLUDE\LZO-2.03\LZODEFS.H
C:\USERS\FEFE\DESKTOP\CLEAN ATHERO\CLEAN ATHERO\BINARY\BINARY\SOURCE\ETERBASE\SINGLETON.H
E:\VSCOMM\VC\INCLUDE\ASSERT.H
E:\VSCOMM\VC\INCLUDE\CRTDEFS.H
C:\USERS\FEFE\DESKTOP\CLEAN ATHERO\CLEAN ATHERO\BINARY\BINARY\SOURCE\ETERBASE\TEA.H
C:\USERS\FEFE\DESKTOP\CLEAN ATHERO\CLEAN ATHERO\BINARY\BINARY\SOURCE\ETERBASE\DEBUG.H
^C:\USERS\FEFE\DESKTOP\CLEAN ATHERO\CLEAN ATHERO\BINARY\BINARY\SOURCE\ETERBASE\MAPPEDFILE.CPP
C:\USERS\FEFE\DESKTOP\CLEAN ATHERO\CLEAN ATHERO\BINARY\BINARY\VS_FILES\ETERBASE\RELEASE\ETERBASE.PCH
C:\USERS\FEFE\DESKTOP\CLEAN ATHERO\CLEAN ATHERO\BINARY\BINARY\SOURCE\ETERBASE\MAPPEDFILE.H
C:\USERS\FEFE\DESKTOP\CLEAN ATHERO\CLEAN ATHERO\BINARY\BINARY\SOURCE\ETERBASE\LZO.H
C:\USERS\FEFE\DESKTOP\CLEAN ATHERO\CLEAN ATHERO\BINARY\BINARY\EXTERN\INCLUDE\LZO-2.03\LZO1X.H
C:\USERS\FEFE\DESKTOP\CLEAN ATHERO\CLEAN ATHERO\BINARY\BINARY\EXTERN\INCLUDE\LZO-2.03\LZOCONF.H
C:\USERS\FEFE\DESKTOP\CLEAN ATHERO\CLEAN ATHERO\BINARY\BINARY\EXTERN\INCLUDE\LZO-2.03\LZODEFS.H
C:\USERS\FEFE\DESKTOP\CLEAN ATHERO\CLEAN ATHERO\BINARY\BINARY\SOURCE\ETERBASE\SINGLETON.H
E:\VSCOMM\VC\INCLUDE\ASSERT.H
E:\VSCOMM\VC\INCLUDE\CRTDEFS.H
C:\USERS\FEFE\DESKTOP\CLEAN ATHERO\CLEAN ATHERO\BINARY\BINARY\SOURCE\ETERBASE\FILEBASE.H
C:\USERS\FEFE\DESKTOP\CLEAN ATHERO\CLEAN ATHERO\BINARY\BINARY\SOURCE\ETERBASE\DEBUG.H
^C:\USERS\FEFE\DESKTOP\CLEAN ATHERO\CLEAN ATHERO\BINARY\BINARY\SOURCE\ETERBASE\POLY\BASE.CPP
C:\USERS\FEFE\DESKTOP\CLEAN ATHERO\CLEAN ATHERO\BINARY\BINARY\VS_FILES\ETERBASE\RELEASE\ETERBASE.PCH
C:\USERS\FEFE\DESKTOP\CLEAN ATHERO\CLEAN ATHERO\BINARY\BINARY\SOURCE\ETERBASE\POLY\BASE.H
^C:\USERS\FEFE\DESKTOP\CLEAN ATHERO\CLEAN ATHERO\BINARY\BINARY\SOURCE\ETERBASE\POLY\POLY.CPP
C:\USERS\FEFE\DESKTOP\CLEAN ATHERO\CLEAN ATHERO\BINARY\BINARY\VS_FILES\ETERBASE\RELEASE\ETERBASE.PCH
E:\VSCOMM\VC\INCLUDE\ASSERT.H
E:\VSCOMM\VC\INCLUDE\CRTDEFS.H
C:\USERS\FEFE\DESKTOP\CLEAN ATHERO\CLEAN ATHERO\BINARY\BINARY\SOURCE\ETERBASE\POLY\POLY.H
C:\USERS\FEFE\DESKTOP\CLEAN ATHERO\CLEAN ATHERO\BINARY\BINARY\SOURCE\ETERBASE\POLY\SYMTABLE.H
E:\VSCOMM\VC\INCLUDE\CCTYPE
^C:\USERS\FEFE\DESKTOP\CLEAN ATHERO\CLEAN ATHERO\BINARY\BINARY\SOURCE\ETERBASE\POLY\SYMBOL.CPP
C:\USERS\FEFE\DESKTOP\CLEAN ATHERO\CLEAN ATHERO\BINARY\BINARY\VS_FILES\ETERBASE\RELEASE\ETERBASE.PCH
C:\USERS\FEFE\DESKTOP\CLEAN ATHERO\CLEAN ATHERO\BINARY\BINARY\SOURCE\ETERBASE\POLY\SYMBOL.H
C:\USERS\FEFE\DESKTOP\CLEAN ATHERO\CLEAN ATHERO\BINARY\BINARY\SOURCE\ETERBASE\POLY\BASE.H
^C:\USERS\FEFE\DESKTOP\CLEAN ATHERO\CLEAN ATHERO\BINARY\BINARY\SOURCE\ETERBASE\POLY\SYMTABLE.CPP
C:\USERS\FEFE\DESKTOP\CLEAN ATHERO\CLEAN ATHERO\BINARY\BINARY\VS_FILES\ETERBASE\RELEASE\ETERBASE.PCH
C:\USERS\FEFE\DESKTOP\CLEAN ATHERO\CLEAN ATHERO\BINARY\BINARY\SOURCE\ETERBASE\POLY\SYMTABLE.H
^C:\USERS\FEFE\DESKTOP\CLEAN ATHERO\CLEAN ATHERO\BINARY\BINARY\SOURCE\ETERBASE\RANDOM.CPP
C:\USERS\FEFE\DESKTOP\CLEAN ATHERO\CLEAN ATHERO\BINARY\BINARY\VS_FILES\ETERBASE\RELEASE\ETERBASE.PCH
E:\VSCOMM\VC\INCLUDE\ASSERT.H
E:\VSCOMM\VC\INCLUDE\CRTDEFS.H
^C:\USERS\FEFE\DESKTOP\CLEAN ATHERO\CLEAN ATHERO\BINARY\BINARY\SOURCE\ETERBASE\STL.CPP
C:\USERS\FEFE\DESKTOP\CLEAN ATHERO\CLEAN ATHERO\BINARY\BINARY\VS_FILES\ETERBASE\RELEASE\ETERBASE.PCH
C:\USERS\FEFE\DESKTOP\CLEAN ATHERO\CLEAN ATHERO\BINARY\BINARY\SOURCE\ETERBASE\STL.H
E:\VSCOMM\VC\INCLUDE\ASSERT.H
E:\VSCOMM\VC\INCLUDE\CRTDEFS.H
E:\VSCOMM\VC\INCLUDE\STACK
E:\VSCOMM\VC\INCLUDE\SET
E:\VSCOMM\VC\INCLUDE\QUEUE
E:\VSCOMM\VC\INCLUDE\FUNCTIONAL
E:\VSCOMM\VC\INCLUDE\XFUNCTIONAL
E:\VSCOMM\VC\INCLUDE\SSTREAM
^C:\USERS\FEFE\DESKTOP\CLEAN ATHERO\CLEAN ATHERO\BINARY\BINARY\SOURCE\ETERBASE\TEA.CPP
C:\USERS\FEFE\DESKTOP\CLEAN ATHERO\CLEAN ATHERO\BINARY\BINARY\VS_FILES\ETERBASE\RELEASE\ETERBASE.PCH
C:\USERS\FEFE\DESKTOP\CLEAN ATHERO\CLEAN ATHERO\BINARY\BINARY\SOURCE\ETERBASE\TEA.H
E:\VSCOMM\VC\INCLUDE\MEMORY.H
E:\VSCOMM\VC\INCLUDE\CRTDEFS.H
^C:\USERS\FEFE\DESKTOP\CLEAN ATHERO\CLEAN ATHERO\BINARY\BINARY\SOURCE\ETERBASE\TEMPFILE.CPP
C:\USERS\FEFE\DESKTOP\CLEAN ATHERO\CLEAN ATHERO\BINARY\BINARY\VS_FILES\ETERBASE\RELEASE\ETERBASE.PCH
C:\USERS\FEFE\DESKTOP\CLEAN ATHERO\CLEAN ATHERO\BINARY\BINARY\SOURCE\ETERBASE\TEMPFILE.H
C:\USERS\FEFE\DESKTOP\CLEAN ATHERO\CLEAN ATHERO\BINARY\BINARY\SOURCE\ETERBASE\FILEBASE.H
C:\USERS\FEFE\DESKTOP\CLEAN ATHERO\CLEAN ATHERO\BINARY\BINARY\SOURCE\ETERBASE\UTILS.H
C:\USERS\FEFE\DESKTOP\CLEAN ATHERO\CLEAN ATHERO\BINARY\BINARY\SOURCE\ETERBASE\DEBUG.H
^C:\USERS\FEFE\DESKTOP\CLEAN ATHERO\CLEAN ATHERO\BINARY\BINARY\SOURCE\ETERBASE\TIMER.CPP
C:\USERS\FEFE\DESKTOP\CLEAN ATHERO\CLEAN ATHERO\BINARY\BINARY\VS_FILES\ETERBASE\RELEASE\ETERBASE.PCH
C:\USERS\FEFE\DESKTOP\CLEAN ATHERO\CLEAN ATHERO\BINARY\BINARY\SOURCE\ETERBASE\TIMER.H
C:\USERS\FEFE\DESKTOP\CLEAN ATHERO\CLEAN ATHERO\BINARY\BINARY\SOURCE\ETERBASE\SINGLETON.H
E:\VSCOMM\VC\INCLUDE\ASSERT.H
E:\VSCOMM\VC\INCLUDE\CRTDEFS.H
^C:\USERS\FEFE\DESKTOP\CLEAN ATHERO\CLEAN ATHERO\BINARY\BINARY\SOURCE\ETERBASE\UTILS.CPP
C:\USERS\FEFE\DESKTOP\CLEAN ATHERO\CLEAN ATHERO\BINARY\BINARY\VS_FILES\ETERBASE\RELEASE\ETERBASE.PCH
E:\VSCOMM\VC\INCLUDE\DIRECT.H
E:\VSCOMM\VC\INCLUDE\CRTDEFS.H
E:\VSCOMM\VC\INCLUDE\IO.H
E:\VSCOMM\VC\INCLUDE\ASSERT.H
E:\VSCOMM\VC\INCLUDE\SYS\STAT.H
E:\VSCOMM\VC\INCLUDE\SYS\TYPES.H
E:\VSCOMM\VC\INCLUDE\SYS\STAT.INL
C:\USERS\FEFE\DESKTOP\CLEAN ATHERO\CLEAN ATHERO\BINARY\BINARY\SOURCE\ETERBASE\UTILS.H
C:\USERS\FEFE\DESKTOP\CLEAN ATHERO\CLEAN ATHERO\BINARY\BINARY\SOURCE\ETERBASE\FILEDIR.H
