^C:\USERS\FEFE\DESKTOP\CLEAN ATHERO\CLEAN ATHERO\BINARY\BINARY\VS_FILES\TERRAINLIB\RELEASE\STDAFX.OBJ|C:\USERS\FEFE\DESKTOP\CLEAN ATHERO\CLEAN ATHERO\BINARY\BINARY\VS_FILES\TERRAINLIB\RELEASE\TERRAIN.OBJ|C:\USERS\FEFE\DESKTOP\CLEAN ATHERO\CLEAN ATHERO\BINARY\BINARY\VS_FILES\TERRAINLIB\RELEASE\TEXTURESET.OBJ
C:\WINDOWS\SYSTEM32\TZRES.DLL
C:\USERS\FEFE\DESKTOP\CLEAN ATHERO\CLEAN ATHERO\BINARY\BINARY\VS_FILES\TERRAINLIB\RELEASE\STDAFX.OBJ
C:\USERS\FEFE\DESKTOP\CLEAN ATHERO\CLEAN ATHERO\BINARY\BINARY\VS_FILES\TERRAINLIB\RELEASE\TERRAIN.OBJ
C:\USERS\FEFE\DESKTOP\CLEAN ATHERO\CLEAN ATHERO\BINARY\BINARY\VS_FILES\TERRAINLIB\RELEASE\TEXTURESET.OBJ
C:\WINDOWS\GLOBALIZATION\SORTING\SORTDEFAULT.NLS
