^C:\USERS\MIHAI\DESKTOP\BINARY\SOURCE\ETERPYTHONLIB\STDAFX.CPP
C:\USERS\MIHAI\DESKTOP\BINARY\VS_FILES\ETERPYTHONLIB\DISTRIBUTE\ETERPYTHONLIB.PCH
C:\USERS\MIHAI\DESKTOP\BINARY\VS_FILES\ETERPYTHONLIB\DISTRIBUTE\VC120.PDB
C:\USERS\MIHAI\DESKTOP\BINARY\VS_FILES\ETERPYTHONLIB\DISTRIBUTE\STDAFX.OBJ
^C:\USERS\MIHAI\DESKTOP\BINARY\SOURCE\ETERPYTHONLIB\PYTHONGRAPHIC.CPP|C:\USERS\MIHAI\DESKTOP\BINARY\SOURCE\ETERPYTHONLIB\PYTHONGRAPHICIMAGEMODULE.CPP|C:\USERS\MIHAI\DESKTOP\BINARY\SOURCE\ETERPYTHONLIB\PYTHONGRAPHICMODULE.CPP|C:\USERS\MIHAI\DESKTOP\BINARY\SOURCE\ETERPYTHONLIB\PYTHONGRAPHICTEXTMODULE.CPP|C:\USERS\MIHAI\DESKTOP\BINARY\SOURCE\ETERPYTHONLIB\PYTHONGRAPHICTHINGMODULE.CPP|C:\USERS\MIHAI\DESKTOP\BINARY\SOURCE\ETERPYTHONLIB\PYTHONGRIDSLOTWINDOW.CPP|C:\USERS\MIHAI\DESKTOP\BINARY\SOURCE\ETERPYTHONLIB\PYTHONSLOTWINDOW.CPP|C:\USERS\MIHAI\DESKTOP\BINARY\SOURCE\ETERPYTHONLIB\PYTHONWINDOW.CPP|C:\USERS\MIHAI\DESKTOP\BINARY\SOURCE\ETERPYTHONLIB\PYTHONWINDOWMANAGER.CPP|C:\USERS\MIHAI\DESKTOP\BINARY\SOURCE\ETERPYTHONLIB\PYTHONWINDOWMANAGERMODULE.CPP
C:\USERS\MIHAI\DESKTOP\BINARY\VS_FILES\ETERPYTHONLIB\DISTRIBUTE\VC120.PDB
C:\USERS\MIHAI\DESKTOP\BINARY\VS_FILES\ETERPYTHONLIB\DISTRIBUTE\PYTHONWINDOWMANAGERMODULE.OBJ
C:\USERS\MIHAI\DESKTOP\BINARY\VS_FILES\ETERPYTHONLIB\DISTRIBUTE\PYTHONWINDOWMANAGER.OBJ
C:\USERS\MIHAI\DESKTOP\BINARY\VS_FILES\ETERPYTHONLIB\DISTRIBUTE\PYTHONWINDOW.OBJ
C:\USERS\MIHAI\DESKTOP\BINARY\VS_FILES\ETERPYTHONLIB\DISTRIBUTE\PYTHONSLOTWINDOW.OBJ
C:\USERS\MIHAI\DESKTOP\BINARY\VS_FILES\ETERPYTHONLIB\DISTRIBUTE\PYTHONGRIDSLOTWINDOW.OBJ
C:\USERS\MIHAI\DESKTOP\BINARY\VS_FILES\ETERPYTHONLIB\DISTRIBUTE\PYTHONGRAPHICTHINGMODULE.OBJ
C:\USERS\MIHAI\DESKTOP\BINARY\VS_FILES\ETERPYTHONLIB\DISTRIBUTE\PYTHONGRAPHICTEXTMODULE.OBJ
C:\USERS\MIHAI\DESKTOP\BINARY\VS_FILES\ETERPYTHONLIB\DISTRIBUTE\PYTHONGRAPHICMODULE.OBJ
C:\USERS\MIHAI\DESKTOP\BINARY\VS_FILES\ETERPYTHONLIB\DISTRIBUTE\PYTHONGRAPHICIMAGEMODULE.OBJ
C:\USERS\MIHAI\DESKTOP\BINARY\VS_FILES\ETERPYTHONLIB\DISTRIBUTE\PYTHONGRAPHIC.OBJ
^C:\USERS\MIHAI\DESKTOP\BINARY\SOURCE\ETERPYTHONLIB\PYTHONGRAPHIC.CPP
C:\USERS\MIHAI\DESKTOP\BINARY\VS_FILES\ETERPYTHONLIB\DISTRIBUTE\VC120.PDB
^C:\USERS\MIHAI\DESKTOP\BINARY\SOURCE\ETERPYTHONLIB\PYTHONGRAPHICIMAGEMODULE.CPP
C:\USERS\MIHAI\DESKTOP\BINARY\VS_FILES\ETERPYTHONLIB\DISTRIBUTE\VC120.PDB
^C:\USERS\MIHAI\DESKTOP\BINARY\SOURCE\ETERPYTHONLIB\PYTHONGRAPHICMODULE.CPP
C:\USERS\MIHAI\DESKTOP\BINARY\VS_FILES\ETERPYTHONLIB\DISTRIBUTE\VC120.PDB
^C:\USERS\MIHAI\DESKTOP\BINARY\SOURCE\ETERPYTHONLIB\PYTHONGRAPHICTEXTMODULE.CPP
C:\USERS\MIHAI\DESKTOP\BINARY\VS_FILES\ETERPYTHONLIB\DISTRIBUTE\VC120.PDB
^C:\USERS\MIHAI\DESKTOP\BINARY\SOURCE\ETERPYTHONLIB\PYTHONGRAPHICTHINGMODULE.CPP
C:\USERS\MIHAI\DESKTOP\BINARY\VS_FILES\ETERPYTHONLIB\DISTRIBUTE\VC120.PDB
^C:\USERS\MIHAI\DESKTOP\BINARY\SOURCE\ETERPYTHONLIB\PYTHONGRIDSLOTWINDOW.CPP
C:\USERS\MIHAI\DESKTOP\BINARY\VS_FILES\ETERPYTHONLIB\DISTRIBUTE\VC120.PDB
^C:\USERS\MIHAI\DESKTOP\BINARY\SOURCE\ETERPYTHONLIB\PYTHONSLOTWINDOW.CPP
C:\USERS\MIHAI\DESKTOP\BINARY\VS_FILES\ETERPYTHONLIB\DISTRIBUTE\VC120.PDB
^C:\USERS\MIHAI\DESKTOP\BINARY\SOURCE\ETERPYTHONLIB\PYTHONWINDOW.CPP
C:\USERS\MIHAI\DESKTOP\BINARY\VS_FILES\ETERPYTHONLIB\DISTRIBUTE\VC120.PDB
^C:\USERS\MIHAI\DESKTOP\BINARY\SOURCE\ETERPYTHONLIB\PYTHONWINDOWMANAGER.CPP
C:\USERS\MIHAI\DESKTOP\BINARY\VS_FILES\ETERPYTHONLIB\DISTRIBUTE\VC120.PDB
^C:\USERS\MIHAI\DESKTOP\BINARY\SOURCE\ETERPYTHONLIB\PYTHONWINDOWMANAGERMODULE.CPP
C:\USERS\MIHAI\DESKTOP\BINARY\VS_FILES\ETERPYTHONLIB\DISTRIBUTE\VC120.PDB
