^C:\USERS\FEFE\DESKTOP\CLEAN ATHERO\CLEAN ATHERO\BINARY\BINARY\VS_FILES\SPHERELIB\RELEASE\FRUSTUM.OBJ|C:\USERS\FEFE\DESKTOP\CLEAN ATHERO\CLEAN ATHERO\BINARY\BINARY\VS_FILES\SPHERELIB\RELEASE\SPHERE.OBJ|C:\USERS\FEFE\DESKTOP\CLEAN ATHERO\CLEAN ATHERO\BINARY\BINARY\VS_FILES\SPHERELIB\RELEASE\SPHEREPACK.OBJ|C:\USERS\FEFE\DESKTOP\CLEAN ATHERO\CLEAN ATHERO\BINARY\BINARY\VS_FILES\SPHERELIB\RELEASE\STDAFX.OBJ
C:\WINDOWS\SYSTEM32\TZRES.DLL
C:\USERS\FEFE\DESKTOP\CLEAN ATHERO\CLEAN ATHERO\BINARY\BINARY\VS_FILES\SPHERELIB\RELEASE\FRUSTUM.OBJ
C:\USERS\FEFE\DESKTOP\CLEAN ATHERO\CLEAN ATHERO\BINARY\BINARY\VS_FILES\SPHERELIB\RELEASE\SPHERE.OBJ
C:\USERS\FEFE\DESKTOP\CLEAN ATHERO\CLEAN ATHERO\BINARY\BINARY\VS_FILES\SPHERELIB\RELEASE\SPHEREPACK.OBJ
C:\USERS\FEFE\DESKTOP\CLEAN ATHERO\CLEAN ATHERO\BINARY\BINARY\VS_FILES\SPHERELIB\RELEASE\STDAFX.OBJ
C:\WINDOWS\GLOBALIZATION\SORTING\SORTDEFAULT.NLS
