^C:\USERS\MIHAI\DESKTOP\BINARY\SOURCE\MILESLIB\STDAFX.CPP
C:\USERS\MIHAI\DESKTOP\BINARY\VS_FILES\MILESLIB\DISTRIBUTE\MILESLIB.PCH
C:\USERS\MIHAI\DESKTOP\BINARY\VS_FILES\MILESLIB\DISTRIBUTE\VC120.PDB
C:\USERS\MIHAI\DESKTOP\BINARY\VS_FILES\MILESLIB\DISTRIBUTE\STDAFX.OBJ
^C:\USERS\MIHAI\DESKTOP\BINARY\SOURCE\MILESLIB\SOUNDBASE.CPP|C:\USERS\MIHAI\DESKTOP\BINARY\SOURCE\MILESLIB\SOUNDDATA.CPP|C:\USERS\MIHAI\DESKTOP\BINARY\SOURCE\MILESLIB\SOUNDINSTANCE2D.CPP|C:\USERS\MIHAI\DESKTOP\BINARY\SOURCE\MILESLIB\SOUNDINSTANCE3D.CPP|C:\USERS\MIHAI\DESKTOP\BINARY\SOURCE\MILESLIB\SOUNDINSTANCESTREAM.CPP|C:\USERS\MIHAI\DESKTOP\BINARY\SOURCE\MILESLIB\SOUNDMANAGER.CPP|C:\USERS\MIHAI\DESKTOP\BINARY\SOURCE\MILESLIB\SOUNDMANAGER2D.CPP|C:\USERS\MIHAI\DESKTOP\BINARY\SOURCE\MILESLIB\SOUNDMANAGER3D.CPP|C:\USERS\MIHAI\DESKTOP\BINARY\SOURCE\MILESLIB\SOUNDMANAGERSTREAM.CPP|C:\USERS\MIHAI\DESKTOP\BINARY\SOURCE\MILESLIB\TYPE.CPP
C:\USERS\MIHAI\DESKTOP\BINARY\VS_FILES\MILESLIB\DISTRIBUTE\VC120.PDB
C:\USERS\MIHAI\DESKTOP\BINARY\VS_FILES\MILESLIB\DISTRIBUTE\TYPE.OBJ
C:\USERS\MIHAI\DESKTOP\BINARY\VS_FILES\MILESLIB\DISTRIBUTE\SOUNDMANAGERSTREAM.OBJ
C:\USERS\MIHAI\DESKTOP\BINARY\VS_FILES\MILESLIB\DISTRIBUTE\SOUNDMANAGER3D.OBJ
C:\USERS\MIHAI\DESKTOP\BINARY\VS_FILES\MILESLIB\DISTRIBUTE\SOUNDMANAGER2D.OBJ
C:\USERS\MIHAI\DESKTOP\BINARY\VS_FILES\MILESLIB\DISTRIBUTE\SOUNDMANAGER.OBJ
C:\USERS\MIHAI\DESKTOP\BINARY\VS_FILES\MILESLIB\DISTRIBUTE\SOUNDINSTANCESTREAM.OBJ
C:\USERS\MIHAI\DESKTOP\BINARY\VS_FILES\MILESLIB\DISTRIBUTE\SOUNDINSTANCE3D.OBJ
C:\USERS\MIHAI\DESKTOP\BINARY\VS_FILES\MILESLIB\DISTRIBUTE\SOUNDINSTANCE2D.OBJ
C:\USERS\MIHAI\DESKTOP\BINARY\VS_FILES\MILESLIB\DISTRIBUTE\SOUNDDATA.OBJ
C:\USERS\MIHAI\DESKTOP\BINARY\VS_FILES\MILESLIB\DISTRIBUTE\SOUNDBASE.OBJ
^C:\USERS\MIHAI\DESKTOP\BINARY\SOURCE\MILESLIB\SOUNDBASE.CPP
C:\USERS\MIHAI\DESKTOP\BINARY\VS_FILES\MILESLIB\DISTRIBUTE\VC120.PDB
^C:\USERS\MIHAI\DESKTOP\BINARY\SOURCE\MILESLIB\SOUNDDATA.CPP
C:\USERS\MIHAI\DESKTOP\BINARY\VS_FILES\MILESLIB\DISTRIBUTE\VC120.PDB
^C:\USERS\MIHAI\DESKTOP\BINARY\SOURCE\MILESLIB\SOUNDINSTANCE2D.CPP
C:\USERS\MIHAI\DESKTOP\BINARY\VS_FILES\MILESLIB\DISTRIBUTE\VC120.PDB
^C:\USERS\MIHAI\DESKTOP\BINARY\SOURCE\MILESLIB\SOUNDINSTANCE3D.CPP
C:\USERS\MIHAI\DESKTOP\BINARY\VS_FILES\MILESLIB\DISTRIBUTE\VC120.PDB
^C:\USERS\MIHAI\DESKTOP\BINARY\SOURCE\MILESLIB\SOUNDINSTANCESTREAM.CPP
C:\USERS\MIHAI\DESKTOP\BINARY\VS_FILES\MILESLIB\DISTRIBUTE\VC120.PDB
^C:\USERS\MIHAI\DESKTOP\BINARY\SOURCE\MILESLIB\SOUNDMANAGER.CPP
C:\USERS\MIHAI\DESKTOP\BINARY\VS_FILES\MILESLIB\DISTRIBUTE\VC120.PDB
^C:\USERS\MIHAI\DESKTOP\BINARY\SOURCE\MILESLIB\SOUNDMANAGER2D.CPP
C:\USERS\MIHAI\DESKTOP\BINARY\VS_FILES\MILESLIB\DISTRIBUTE\VC120.PDB
^C:\USERS\MIHAI\DESKTOP\BINARY\SOURCE\MILESLIB\SOUNDMANAGER3D.CPP
C:\USERS\MIHAI\DESKTOP\BINARY\VS_FILES\MILESLIB\DISTRIBUTE\VC120.PDB
^C:\USERS\MIHAI\DESKTOP\BINARY\SOURCE\MILESLIB\SOUNDMANAGERSTREAM.CPP
C:\USERS\MIHAI\DESKTOP\BINARY\VS_FILES\MILESLIB\DISTRIBUTE\VC120.PDB
^C:\USERS\MIHAI\DESKTOP\BINARY\SOURCE\MILESLIB\TYPE.CPP
C:\USERS\MIHAI\DESKTOP\BINARY\VS_FILES\MILESLIB\DISTRIBUTE\VC120.PDB
