^C:\USERS\FEFE\DESKTOP\CLEAN ATHERO\CLEAN ATHERO\BINARY\BINARY\SOURCE\ETERPYTHONLIB\STDAFX.CPP
C:\USERS\FEFE\DESKTOP\CLEAN ATHERO\CLEAN ATHERO\BINARY\BINARY\VS_FILES\ETERPYTHONLIB\RELEASE\ETERPYTHONLIB.PCH
C:\USERS\FEFE\DESKTOP\CLEAN ATHERO\CLEAN ATHERO\BINARY\BINARY\VS_FILES\ETERPYTHONLIB\RELEASE\VC120.PDB
C:\USERS\FEFE\DESKTOP\CLEAN ATHERO\CLEAN ATHERO\BINARY\BINARY\VS_FILES\ETERPYTHONLIB\RELEASE\STDAFX.OBJ
^C:\USERS\FEFE\DESKTOP\CLEAN ATHERO\CLEAN ATHERO\BINARY\BINARY\SOURCE\ETERPYTHONLIB\PYTHONGRAPHIC.CPP|C:\USERS\FEFE\DESKTOP\CLEAN ATHERO\CLEAN ATHERO\BINARY\BINARY\SOURCE\ETERPYTHONLIB\PYTHONGRAPHICIMAGEMODULE.CPP|C:\USERS\FEFE\DESKTOP\CLEAN ATHERO\CLEAN ATHERO\BINARY\BINARY\SOURCE\ETERPYTHONLIB\PYTHONGRAPHICMODULE.CPP|C:\USERS\FEFE\DESKTOP\CLEAN ATHERO\CLEAN ATHERO\BINARY\BINARY\SOURCE\ETERPYTHONLIB\PYTHONGRAPHICTEXTMODULE.CPP|C:\USERS\FEFE\DESKTOP\CLEAN ATHERO\CLEAN ATHERO\BINARY\BINARY\SOURCE\ETERPYTHONLIB\PYTHONGRAPHICTHINGMODULE.CPP|C:\USERS\FEFE\DESKTOP\CLEAN ATHERO\CLEAN ATHERO\BINARY\BINARY\SOURCE\ETERPYTHONLIB\PYTHONGRIDSLOTWINDOW.CPP|C:\USERS\FEFE\DESKTOP\CLEAN ATHERO\CLEAN ATHERO\BINARY\BINARY\SOURCE\ETERPYTHONLIB\PYTHONSLOTWINDOW.CPP|C:\USERS\FEFE\DESKTOP\CLEAN ATHERO\CLEAN ATHERO\BINARY\BINARY\SOURCE\ETERPYTHONLIB\PYTHONWINDOW.CPP|C:\USERS\FEFE\DESKTOP\CLEAN ATHERO\CLEAN ATHERO\BINARY\BINARY\SOURCE\ETERPYTHONLIB\PYTHONWINDOWMANAGER.CPP|C:\USERS\FEFE\DESKTOP\CLEAN ATHERO\CLEAN ATHERO\BINARY\BINARY\SOURCE\ETERPYTHONLIB\PYTHONWINDOWMANAGERMODULE.CPP
C:\USERS\FEFE\DESKTOP\CLEAN ATHERO\CLEAN ATHERO\BINARY\BINARY\VS_FILES\ETERPYTHONLIB\RELEASE\VC120.PDB
C:\USERS\FEFE\DESKTOP\CLEAN ATHERO\CLEAN ATHERO\BINARY\BINARY\VS_FILES\ETERPYTHONLIB\RELEASE\PYTHONWINDOWMANAGERMODULE.OBJ
C:\USERS\FEFE\DESKTOP\CLEAN ATHERO\CLEAN ATHERO\BINARY\BINARY\VS_FILES\ETERPYTHONLIB\RELEASE\PYTHONWINDOWMANAGER.OBJ
C:\USERS\FEFE\DESKTOP\CLEAN ATHERO\CLEAN ATHERO\BINARY\BINARY\VS_FILES\ETERPYTHONLIB\RELEASE\PYTHONWINDOW.OBJ
C:\USERS\FEFE\DESKTOP\CLEAN ATHERO\CLEAN ATHERO\BINARY\BINARY\VS_FILES\ETERPYTHONLIB\RELEASE\PYTHONSLOTWINDOW.OBJ
C:\USERS\FEFE\DESKTOP\CLEAN ATHERO\CLEAN ATHERO\BINARY\BINARY\VS_FILES\ETERPYTHONLIB\RELEASE\PYTHONGRIDSLOTWINDOW.OBJ
C:\USERS\FEFE\DESKTOP\CLEAN ATHERO\CLEAN ATHERO\BINARY\BINARY\VS_FILES\ETERPYTHONLIB\RELEASE\PYTHONGRAPHICTHINGMODULE.OBJ
C:\USERS\FEFE\DESKTOP\CLEAN ATHERO\CLEAN ATHERO\BINARY\BINARY\VS_FILES\ETERPYTHONLIB\RELEASE\PYTHONGRAPHICTEXTMODULE.OBJ
C:\USERS\FEFE\DESKTOP\CLEAN ATHERO\CLEAN ATHERO\BINARY\BINARY\VS_FILES\ETERPYTHONLIB\RELEASE\PYTHONGRAPHICMODULE.OBJ
C:\USERS\FEFE\DESKTOP\CLEAN ATHERO\CLEAN ATHERO\BINARY\BINARY\VS_FILES\ETERPYTHONLIB\RELEASE\PYTHONGRAPHICIMAGEMODULE.OBJ
C:\USERS\FEFE\DESKTOP\CLEAN ATHERO\CLEAN ATHERO\BINARY\BINARY\VS_FILES\ETERPYTHONLIB\RELEASE\PYTHONGRAPHIC.OBJ
^C:\USERS\FEFE\DESKTOP\CLEAN ATHERO\CLEAN ATHERO\BINARY\BINARY\SOURCE\ETERPYTHONLIB\PYTHONGRAPHIC.CPP
C:\USERS\FEFE\DESKTOP\CLEAN ATHERO\CLEAN ATHERO\BINARY\BINARY\VS_FILES\ETERPYTHONLIB\RELEASE\VC120.PDB
^C:\USERS\FEFE\DESKTOP\CLEAN ATHERO\CLEAN ATHERO\BINARY\BINARY\SOURCE\ETERPYTHONLIB\PYTHONGRAPHICIMAGEMODULE.CPP
C:\USERS\FEFE\DESKTOP\CLEAN ATHERO\CLEAN ATHERO\BINARY\BINARY\VS_FILES\ETERPYTHONLIB\RELEASE\VC120.PDB
^C:\USERS\FEFE\DESKTOP\CLEAN ATHERO\CLEAN ATHERO\BINARY\BINARY\SOURCE\ETERPYTHONLIB\PYTHONGRAPHICMODULE.CPP
C:\USERS\FEFE\DESKTOP\CLEAN ATHERO\CLEAN ATHERO\BINARY\BINARY\VS_FILES\ETERPYTHONLIB\RELEASE\VC120.PDB
^C:\USERS\FEFE\DESKTOP\CLEAN ATHERO\CLEAN ATHERO\BINARY\BINARY\SOURCE\ETERPYTHONLIB\PYTHONGRAPHICTEXTMODULE.CPP
C:\USERS\FEFE\DESKTOP\CLEAN ATHERO\CLEAN ATHERO\BINARY\BINARY\VS_FILES\ETERPYTHONLIB\RELEASE\VC120.PDB
^C:\USERS\FEFE\DESKTOP\CLEAN ATHERO\CLEAN ATHERO\BINARY\BINARY\SOURCE\ETERPYTHONLIB\PYTHONGRAPHICTHINGMODULE.CPP
C:\USERS\FEFE\DESKTOP\CLEAN ATHERO\CLEAN ATHERO\BINARY\BINARY\VS_FILES\ETERPYTHONLIB\RELEASE\VC120.PDB
^C:\USERS\FEFE\DESKTOP\CLEAN ATHERO\CLEAN ATHERO\BINARY\BINARY\SOURCE\ETERPYTHONLIB\PYTHONGRIDSLOTWINDOW.CPP
C:\USERS\FEFE\DESKTOP\CLEAN ATHERO\CLEAN ATHERO\BINARY\BINARY\VS_FILES\ETERPYTHONLIB\RELEASE\VC120.PDB
^C:\USERS\FEFE\DESKTOP\CLEAN ATHERO\CLEAN ATHERO\BINARY\BINARY\SOURCE\ETERPYTHONLIB\PYTHONSLOTWINDOW.CPP
C:\USERS\FEFE\DESKTOP\CLEAN ATHERO\CLEAN ATHERO\BINARY\BINARY\VS_FILES\ETERPYTHONLIB\RELEASE\VC120.PDB
^C:\USERS\FEFE\DESKTOP\CLEAN ATHERO\CLEAN ATHERO\BINARY\BINARY\SOURCE\ETERPYTHONLIB\PYTHONWINDOW.CPP
C:\USERS\FEFE\DESKTOP\CLEAN ATHERO\CLEAN ATHERO\BINARY\BINARY\VS_FILES\ETERPYTHONLIB\RELEASE\VC120.PDB
^C:\USERS\FEFE\DESKTOP\CLEAN ATHERO\CLEAN ATHERO\BINARY\BINARY\SOURCE\ETERPYTHONLIB\PYTHONWINDOWMANAGER.CPP
C:\USERS\FEFE\DESKTOP\CLEAN ATHERO\CLEAN ATHERO\BINARY\BINARY\VS_FILES\ETERPYTHONLIB\RELEASE\VC120.PDB
^C:\USERS\FEFE\DESKTOP\CLEAN ATHERO\CLEAN ATHERO\BINARY\BINARY\SOURCE\ETERPYTHONLIB\PYTHONWINDOWMANAGERMODULE.CPP
C:\USERS\FEFE\DESKTOP\CLEAN ATHERO\CLEAN ATHERO\BINARY\BINARY\VS_FILES\ETERPYTHONLIB\RELEASE\VC120.PDB
