^C:\USERS\FEFE\DESKTOP\CLEAN ATHERO\CLEAN ATHERO\BINARY\BINARY\SOURCE\ETERIMAGELIB\STDAFX.CPP
/c /I../../extern/include /Zi /nologo /W3 /WX- /O2 /Ob1 /Oy- /GL /D WIN32 /D NDEBUG /D _LIB /D _CRT_SECURE_NO_WARNINGS /D _USING_V110_SDK71_ /D _MBCS /GF /Gm- /EHsc /MT /GS /Gy /fp:precise /Zc:wchar_t /Zc:forScope /Yc"stdafx.h" /Fp"RELEASE\ETERIMAGELIB.PCH" /Fo"RELEASE\\" /Fd"RELEASE\VC120.PDB" /Gd /TP /analyze- C:\USERS\FEFE\DESKTOP\CLEAN ATHERO\CLEAN ATHERO\BINARY\BINARY\SOURCE\ETERIMAGELIB\STDAFX.CPP
^C:\USERS\FEFE\DESKTOP\CLEAN ATHERO\CLEAN ATHERO\BINARY\BINARY\SOURCE\ETERIMAGELIB\DXTCIMAGE.CPP
/c /I../../extern/include /Zi /nologo /W3 /WX- /O2 /Ob1 /Oy- /GL /D WIN32 /D NDEBUG /D _LIB /D _CRT_SECURE_NO_WARNINGS /D _USING_V110_SDK71_ /D _MBCS /GF /Gm- /EHsc /MT /GS /Gy /fp:precise /Zc:wchar_t /Zc:forScope /Yu"stdafx.h" /Fp"RELEASE\ETERIMAGELIB.PCH" /Fo"RELEASE\\" /Fd"RELEASE\VC120.PDB" /Gd /TP /analyze- C:\USERS\FEFE\DESKTOP\CLEAN ATHERO\CLEAN ATHERO\BINARY\BINARY\SOURCE\ETERIMAGELIB\DXTCIMAGE.CPP
^C:\USERS\FEFE\DESKTOP\CLEAN ATHERO\CLEAN ATHERO\BINARY\BINARY\SOURCE\ETERIMAGELIB\IMAGE.CPP
/c /I../../extern/include /Zi /nologo /W3 /WX- /O2 /Ob1 /Oy- /GL /D WIN32 /D NDEBUG /D _LIB /D _CRT_SECURE_NO_WARNINGS /D _USING_V110_SDK71_ /D _MBCS /GF /Gm- /EHsc /MT /GS /Gy /fp:precise /Zc:wchar_t /Zc:forScope /Yu"stdafx.h" /Fp"RELEASE\ETERIMAGELIB.PCH" /Fo"RELEASE\\" /Fd"RELEASE\VC120.PDB" /Gd /TP /analyze- C:\USERS\FEFE\DESKTOP\CLEAN ATHERO\CLEAN ATHERO\BINARY\BINARY\SOURCE\ETERIMAGELIB\IMAGE.CPP
^C:\USERS\FEFE\DESKTOP\CLEAN ATHERO\CLEAN ATHERO\BINARY\BINARY\SOURCE\ETERIMAGELIB\TGAIMAGE.CPP
/c /I../../extern/include /Zi /nologo /W3 /WX- /O2 /Ob1 /Oy- /GL /D WIN32 /D NDEBUG /D _LIB /D _CRT_SECURE_NO_WARNINGS /D _USING_V110_SDK71_ /D _MBCS /GF /Gm- /EHsc /MT /GS /Gy /fp:precise /Zc:wchar_t /Zc:forScope /Yu"stdafx.h" /Fp"RELEASE\ETERIMAGELIB.PCH" /Fo"RELEASE\\" /Fd"RELEASE\VC120.PDB" /Gd /TP /analyze- C:\USERS\FEFE\DESKTOP\CLEAN ATHERO\CLEAN ATHERO\BINARY\BINARY\SOURCE\ETERIMAGELIB\TGAIMAGE.CPP
