^C:\USERS\MIHAI\DESKTOP\BINARY\VS_FILES\ETERGRNLIB\DISTRIBUTE\LODCONTROLLER.OBJ|C:\USERS\MIHAI\DESKTOP\BINARY\VS_FILES\ETERGRNLIB\DISTRIBUTE\MATERIAL.OBJ|C:\USERS\MIHAI\DESKTOP\BINARY\VS_FILES\ETERGRNLIB\DISTRIBUTE\MESH.OBJ|C:\USERS\MIHAI\DESKTOP\BINARY\VS_FILES\ETERGRNLIB\DISTRIBUTE\MODEL.OBJ|C:\USERS\MIHAI\DESKTOP\BINARY\VS_FILES\ETERGRNLIB\DISTRIBUTE\MODELINSTANCE.OBJ|C:\USERS\MIHAI\DESKTOP\BINARY\VS_FILES\ETERGRNLIB\DISTRIBUTE\MODELINSTANCECOLLISIONDETECTION.OBJ|C:\USERS\MIHAI\DESKTOP\BINARY\VS_FILES\ETERGRNLIB\DISTRIBUTE\MODELINSTANCEMODEL.OBJ|C:\USERS\MIHAI\DESKTOP\BINARY\VS_FILES\ETERGRNLIB\DISTRIBUTE\MODELINSTANCEMOTION.OBJ|C:\USERS\MIHAI\DESKTOP\BINARY\VS_FILES\ETERGRNLIB\DISTRIBUTE\MODELINSTANCERENDER.OBJ|C:\USERS\MIHAI\DESKTOP\BINARY\VS_FILES\ETERGRNLIB\DISTRIBUTE\MODELINSTANCEUPDATE.OBJ|C:\USERS\MIHAI\DESKTOP\BINARY\VS_FILES\ETERGRNLIB\DISTRIBUTE\MOTION.OBJ|C:\USERS\MIHAI\DESKTOP\BINARY\VS_FILES\ETERGRNLIB\DISTRIBUTE\STDAFX.OBJ|C:\USERS\MIHAI\DESKTOP\BINARY\VS_FILES\ETERGRNLIB\DISTRIBUTE\THING.OBJ|C:\USERS\MIHAI\DESKTOP\BINARY\VS_FILES\ETERGRNLIB\DISTRIBUTE\THINGINSTANCE.OBJ|C:\USERS\MIHAI\DESKTOP\BINARY\VS_FILES\ETERGRNLIB\DISTRIBUTE\UTIL.OBJ
C:\WINDOWS\SYSTEM32\TZRES.DLL
C:\USERS\MIHAI\DESKTOP\BINARY\VS_FILES\ETERGRNLIB\DISTRIBUTE\LODCONTROLLER.OBJ
C:\USERS\MIHAI\DESKTOP\BINARY\VS_FILES\ETERGRNLIB\DISTRIBUTE\MATERIAL.OBJ
C:\USERS\MIHAI\DESKTOP\BINARY\VS_FILES\ETERGRNLIB\DISTRIBUTE\MESH.OBJ
C:\USERS\MIHAI\DESKTOP\BINARY\VS_FILES\ETERGRNLIB\DISTRIBUTE\MODEL.OBJ
C:\USERS\MIHAI\DESKTOP\BINARY\VS_FILES\ETERGRNLIB\DISTRIBUTE\MODELINSTANCE.OBJ
C:\USERS\MIHAI\DESKTOP\BINARY\VS_FILES\ETERGRNLIB\DISTRIBUTE\MODELINSTANCECOLLISIONDETECTION.OBJ
C:\USERS\MIHAI\DESKTOP\BINARY\VS_FILES\ETERGRNLIB\DISTRIBUTE\MODELINSTANCEMODEL.OBJ
C:\USERS\MIHAI\DESKTOP\BINARY\VS_FILES\ETERGRNLIB\DISTRIBUTE\MODELINSTANCEMOTION.OBJ
C:\USERS\MIHAI\DESKTOP\BINARY\VS_FILES\ETERGRNLIB\DISTRIBUTE\MODELINSTANCERENDER.OBJ
C:\USERS\MIHAI\DESKTOP\BINARY\VS_FILES\ETERGRNLIB\DISTRIBUTE\MODELINSTANCEUPDATE.OBJ
C:\USERS\MIHAI\DESKTOP\BINARY\VS_FILES\ETERGRNLIB\DISTRIBUTE\MOTION.OBJ
C:\USERS\MIHAI\DESKTOP\BINARY\VS_FILES\ETERGRNLIB\DISTRIBUTE\STDAFX.OBJ
C:\USERS\MIHAI\DESKTOP\BINARY\VS_FILES\ETERGRNLIB\DISTRIBUTE\THING.OBJ
C:\USERS\MIHAI\DESKTOP\BINARY\VS_FILES\ETERGRNLIB\DISTRIBUTE\THINGINSTANCE.OBJ
C:\USERS\MIHAI\DESKTOP\BINARY\VS_FILES\ETERGRNLIB\DISTRIBUTE\UTIL.OBJ
C:\WINDOWS\GLOBALIZATION\SORTING\SORTDEFAULT.NLS
